…
 │     1 Female dead                        0  0         0          1                                │
 │     2 Female age                         0 60        60          1                                │
 │     3 Female bmi                         0 28        28          1                                │
 │     4 Female oa                          0  0         0          1                                │
 │     5 Female tka                         0  0         0          1                                │
 │     6 Female bmi_overweight_or_obese     1  1         1          1                                │
 │     7 Female bmi_obese                   0  0         0          1                                │
 │     8 Male   dead                        0  0         0          1                                │
 │     9 Male   age                         0 60       180          1                                │
 │    10 Male   bmi                         0 30.3      91          1                                │
 │    11 Male   oa                          3  1         3          1                                │
 │    12 Male   tka                         1  0.333     1          1                                │
 │    13 Male   bmi_overweight_or_obese     2  0.667     2          1                                │
 │    14 Male   bmi_obese                   2  0.667     2          1                                │
 │    # A tibble: 21 × 7                                                                             │
 │    # Groups:   sex [2]                                                                            │
 │       sex    age_group variable                    N  Mean   Sum sim_number                       │
 │       <chr>  <chr>     <chr>                   <int> <dbl> <dbl>      <dbl>                       │
 │     1 Female 55-64     dead                        0     0     0          1                       │
 │     2 Female 55-64     age                         0    60    60          1                       │
 │     3 Female 55-64     bmi                         0    28    28          1                       │
 │     4 Female 55-64     oa                          0     0     0          1                       │
 │     5 Female 55-64     tka                         0     0     0          1                       │
 │     6 Female 55-64     bmi_overweight_or_obese     1     1     1          1                       │
 │     7 Female 55-64     bmi_obese                   0     0     0          1                       │
 │     8 Male   45-54     dead                        0     0     0          1                       │
 │     9 Male   45-54     age                         0    50   100          1                       │
 │    10 Male   45-54     bmi                         0    28    56          1                       │
 │    # ℹ 11 more rows                                                                               │
…
 │     1 Female dead                        0  0         0          1                                │
 │     2 Female age                         0 60        60          1                                │
 │     3 Female bmi                         0 28        28          1                                │
 │     4 Female oa                          0  0         0          1                                │
 │     5 Female tka                         0  0         0          1                                │
 │     6 Female bmi_overweight_or_obese     1  1         1          1                                │
 │     7 Female bmi_obese                   0  0         0          1                                │
 │     8 Male   dead                        0  0         0          1                                │
 │     9 Male   age                         0 60       180          1                                │
 │    10 Male   bmi                         0 30.3      91          1                                │
 │    11 Male   oa                          3  1         3          1                                │
 │    12 Male   tka                         1  0.333     1          1                                │
 │    13 Male   bmi_overweight_or_obese     2  0.667     2          1                                │
 │    14 Male   bmi_obese                   2  0.667     2          1                                │
 │    # A tibble: 21 × 7                                                                             │
 │    # Groups:   sex [2]                                                                            │
 │       sex    age_group variable                    N  Mean   Sum sim_number                       │
 │       <chr>  <chr>     <chr>                   <int> <dbl> <dbl>      <dbl>                       │
 │     1 Female 55-64     dead                        0     0     0          1                       │
 │     2 Female 55-64     age                         0    60    60          1                       │
 │     3 Female 55-64     bmi                         0    28    28          1                       │
 │     4 Female 55-64     oa                          0     0     0          1                       │
 │     5 Female 55-64     tka                         0     0     0          1                       │
 │     6 Female 55-64     bmi_overweight_or_obese     1     1     1          1                       │
 │     7 Female 55-64     bmi_obese                   0     0     0          1                       │
 │     8 Male   45-54     dead                        0     0     0          1                       │
 │     9 Male   45-54     age                         0    50   100          1                       │
 │    10 Male   45-54     bmi                         0    28    56          1                       │
 │    # ℹ 11 more rows                                                                               │
…
 │     1 Female dead                        0  0         0          1                                │
 │     2 Female age                         0 60        60          1                                │
 │     3 Female bmi                         0 28        28          1                                │
 │     4 Female oa                          0  0         0          1                                │
 │     5 Female tka                         0  0         0          1                                │
 │     6 Female bmi_overweight_or_obese     1  1         1          1                                │
 │     7 Female bmi_obese                   0  0         0          1                                │
 │     8 Male   dead                        0  0         0          1                                │
 │     9 Male   age                         0 60       180          1                                │
 │    10 Male   bmi                         0 30.3      91          1                                │
 │    11 Male   oa                          3  1         3          1                                │
 │    12 Male   tka                         1  0.333     1          1                                │
 │    13 Male   bmi_overweight_or_obese     2  0.667     2          1                                │
 │    14 Male   bmi_obese                   2  0.667     2          1                                │
 │    # A tibble: 21 × 7                                                                             │
 │    # Groups:   sex [2]                                                                            │
 │       sex    age_group variable                    N  Mean   Sum sim_number                       │
 │       <chr>  <chr>     <chr>                   <int> <dbl> <dbl>      <dbl>                       │
 │     1 Female 55-64     dead                        0     0     0          1                       │
 │     2 Female 55-64     age                         0    60    60          1                       │
 │     3 Female 55-64     bmi                         0    28    28          1                       │
 │     4 Female 55-64     oa                          0     0     0          1                       │
 │     5 Female 55-64     tka                         0     0     0          1                       │
 │     6 Female 55-64     bmi_overweight_or_obese     1     1     1          1                       │
 │     7 Female 55-64     bmi_obese                   0     0     0          1                       │
 │     8 Male   45-54     dead                        0     0     0          1                       │
 │     9 Male   45-54     age                         0    50   100          1                       │
 │    10 Male   45-54     bmi                         0    28    56          1                       │
 │    # ℹ 11 more rows                                                                               │
…
 │     1 Female dead                        0  0         0          1                                │
 │     2 Female age                         0 60        60          1                                │
 │     3 Female bmi                         0 28        28          1                                │
 │     4 Female oa                          0  0         0          1                                │
 │     5 Female tka                         0  0         0          1                                │
 │     6 Female bmi_overweight_or_obese     1  1         1          1                                │
 │     7 Female bmi_obese                   0  0         0          1                                │
 │     8 Male   dead                        0  0         0          1                                │
 │     9 Male   age                         0 60       180          1                                │
 │    10 Male   bmi                         0 30.3      91          1                                │
 │    11 Male   oa                          3  1         3          1                                │
 │    12 Male   tka                         1  0.333     1          1                                │
 │    13 Male   bmi_overweight_or_obese     2  0.667     2          1                                │
 │    14 Male   bmi_obese                   2  0.667     2          1                                │
 │    # A tibble: 21 × 7                                                                             │
 │    # Groups:   sex [2]                                                                            │
 │       sex    age_group variable                    N  Mean   Sum sim_number                       │
 │       <chr>  <chr>     <chr>                   <int> <dbl> <dbl>      <dbl>                       │
 │     1 Female 55-64     dead                        0     0     0          1                       │
 │     2 Female 55-64     age                         0    60    60          1                       │
 │     3 Female 55-64     bmi                         0    28    28          1                       │
 │     4 Female 55-64     oa                          0     0     0          1                       │
 │     5 Female 55-64     tka                         0     0     0          1                       │
 │     6 Female 55-64     bmi_overweight_or_obese     1     1     1          1                       │
 │     7 Female 55-64     bmi_obese                   0     0     0          1                       │
 │     8 Male   45-54     dead                        0     0     0          1                       │
 │     9 Male   45-54     age                         0    50   100          1                       │
 │    10 Male   45-54     bmi                         0    28    56          1                       │
 │    # ℹ 11 more rows                                                                               │
…
